
cityarea['南投縣'] = ['中寮鄉', '仁愛鄉', '信義鄉', '南投市', '名間鄉', '國姓鄉', '埔里鎮', '水里鄉', '竹山鎮', '草屯鎮', '集集鎮', '魚池鄉', '鹿谷鄉']; 
cityarea['台中市'] = ['中區', '中山區', '北區', '北屯區', '南區', '南屯區', '后里區', '和平區', '士林區', '外埔區', '大安區', '大甲區', '大肚區', '大里區', '中寮鄉', '仁愛鄉', '信義鄉', '南投市', '名間鄉', '國姓鄉', '埔里鎮', '水里鄉', '竹山鎮', '草屯鎮', '集集鎮', '魚池鄉', '鹿谷鄉', '大雅區', '太平區', '新店區', '新社區', '東勢區', '東區', '松山區', '梧棲區', '沙鹿區', '清水區', '潭子區', '烏日區', '石岡區', '神岡區', '西區', '西屯區', '豐原區', '霧峰區', '龍井區'] ; 
// cityarea['台北市'] = ['三峽區', '中區', '中山區', '中正區', '信義區', '內湖區', '北投區', '南港區', '士林區', '大同區', '大安區', '文山區', '東區', '松山區', '板橋區', '桃園市', '樹林區', '汐止區', '苓雅區', '萬華區', '萬里區', '虎尾鎮', '西屯區'] ; // 有兩個鳥地方
cityarea['台北市'] = ['三峽區', '中山區', '中正區', '信義區', '內湖區', '北投區', '南港區', '士林區', '大同區', '大安區', '文山區', '松山區', '板橋區', '桃園市', '樹林區', '汐止區', '苓雅區', '萬華區', '萬里區', '虎尾鎮', '西屯區'] ;
cityarea['台南市'] = ['七股區', '下營區', '中西區', '仁德區', '佳里區', '六甲區', '北區', '北門區', '南化區', '南區', '善化區', '大內區', '學甲區', '安南區', '安定區', '安平區', '官田區', '將軍區', '山上區', '左鎮區', '後壁區', '恆春鎮', '新化區', '新市區', '新營區', '東區', '東山區', '柳營區', '楠西區', '歸仁區', '永康區', '玉井區', '白河區', '義竹鄉', '西港區', '關廟區', '鹽水區', '麻豆區', '鼓山區', '龍崎區'] ; 
cityarea['台東縣'] = ['卑南鄉', '台東市', '大武鄉', '太麻里鄉', '延平鄉', '成功鎮', '東河鄉', '楠梓區', '池上鄉', '海端鄉', '綠島鄉', '蘭嶼鄉', '豐原區', '達仁鄉', '金峰鄉', '長濱鄉', '關山鎮', '鹿野鄉'] ; 
cityarea['嘉義市'] = ['內湖區', '東區', '西區'] ; 
cityarea['嘉義縣'] = ['中埔鄉', '六腳鄉', '大埔鄉', '大林鎮', '太保市', '布袋鎮', '新港鄉', '朴子市', '東石鄉', '梅山鄉', '民雄鄉', '水上鄉', '番路鄉', '竹崎鄉', '義竹鄉', '阿里山鄉', '鹿草鄉'] ; 
cityarea['基隆市'] = ['七堵區', '中山區', '中正區', '仁愛區', '信義區', '大園鄉', '安樂區', '新店區', '暖暖區', '淡水區'] ; 
cityarea['宜蘭縣'] = ['三星鄉', '五結鄉', '信義區', '冬山鄉', '南澳鄉', '員山鄉', '壯圍鄉', '大同鄉', '宜蘭市', '礁溪鄉', '羅東鎮', '蘇澳鎮', '西屯區', '頭城鎮'] ; 
cityarea['屏東縣'] = ['三地門鄉', '九如鄉', '佳冬鄉', '內埔鄉', '南州鄉', '大同區', '屏東市', '崁頂鄉', '恆春鎮', '新園鄉', '新埤鄉', '新店區', '春日鄉', '東港鎮', '枋寮鄉', '枋山鄉', '林邊鄉', '滿州鄉', '潮州鎮', '牡丹鄉', '獅子鄉', '琉球鄉', '瑪家鄉', '竹田鄉', '萬丹鄉', '萬巒鄉', '車城鄉', '里港鄉', '長治鄉', '霧台鄉', '高樹鄉', '鹽埔鄉', '麟洛鄉'] ; 
cityarea['彰化縣'] = ['二林鎮', '二水鄉', '伸港鄉', '北斗鎮', '和美鎮', '員林鎮', '埔心鄉', '埔鹽鄉', '埤頭鄉', '大安區', '大村鄉', '彰化市', '永靖鄉', '溪州鄉', '溪湖鎮', '田中鎮', '田尾鄉', '社頭鄉', '福興鄉', '秀水鄉', '竹塘鄉', '線西鄉', '芬園鄉', '花壇鄉', '芳苑鄉', '鹿港鎮'] ; 
cityarea['新北市'] = ['三峽區', '三芝區', '三重區', '中和區', '五股區', '八德市', '八里區', '北投區', '土城區', '坪林區', '大同區', '安樂區', '平溪區', '恆春鎮', '新店區', '新莊區', '板橋區', '林口區', '樹林區', '永和區', '汐止區', '泰山區', '淡水區', '深坑區', '烏來區', '瑞芳區', '石碇區', '石門區', '花蓮市', '萬華區', '萬里區', '蘆洲區', '貢寮區', '金山區', '雙溪區', '鶯歌區', '鹽埕區'] ; 
cityarea['新竹市'] = ['北區', '寶山鄉', '東區', '苓雅區', '香山區'] ; 
cityarea['新竹縣'] = ['五峰鄉', '北區', '北埔鄉', '大安區', '宜蘭市', '寶山鄉', '尖石鄉', '峨眉鄉', '新埔鎮', '新豐鄉', '東區', '橫山鄉', '湖口鄉', '竹北市', '竹東鎮', '芎林鄉', '關西鎮'] ; 
cityarea['桃園縣'] = ['中壢市', '中正區', '信義區', '八德市', '北區', '大園鄉', '大溪鎮', '平鎮市', '復興鄉', '新屋鄉', '桃園市', '楊梅市', '蘆竹鄉', '觀音鄉', '龍潭鄉', '龜山鄉'] ; 
cityarea['花蓮縣'] = ['光復鄉', '卓溪鄉', '吉安鄉', '壽豐鄉', '富里鄉', '新城鄉', '玉里鎮', '瑞穗鄉', '秀林鄉', '花蓮市', '萬榮鄉', '豐濱鄉', '頭城鎮', '鳳林鎮'] ; 
cityarea['苗栗縣'] = ['三灣鄉', '三義鄉', '中正區', '公館鄉', '北區', '卓蘭鎮', '南庄鄉', '大安區', '大湖鄉', '後龍鎮', '泰安鄉', '獅潭鄉', '竹南鎮', '苑裡鎮', '苗栗市', '西湖鄉', '通霄鎮', '造橋鄉', '銅鑼鄉', '頭份鎮', '頭屋鄉'] ; 
cityarea['雲林縣'] = ['二崙鄉', '元長鄉', '北港鎮', '口湖鄉', '古坑鄉', '台西鄉', '土庫鎮', '大埤鄉', '崙背鄉', '斗六市', '斗南鎮', '東勢鄉', '林內鄉', '水林鄉', '淡水區', '莿桐鄉', '虎尾鎮', '褒忠鄉', '西螺鎮', '麥寮鄉'] ; 
cityarea['高雄市'] = ['三民區', '中壢市', '中山區', '仁武區', '信義區', '內湖區', '內門區', '六龜區', '前金區', '前鎮區', '大安區', '大寮區', '大樹區', '大社區', '小港區', '岡山區', '左營區', '彌陀區', '新興區', '旗山區', '旗津區', '杉林區', '松山區', '板橋區', '林園區', '桃源區', '梓官區', '楠梓區', '橋頭區', '永安區', '湖內區', '燕巢區', '田寮區', '甲仙區', '美濃區', '苓雅區', '茂林區', '茄萣區', '路竹區', '那瑪夏區', '阿蓮區', '集集鎮', '鳥松區', '鳳山區', '鹽埕區', '鼓山區'];